## Interface: 11200
## Author: Naturfreund
## Title: [|cff3fcf26K|r] NECB Options (5.4.8)
## Notes: Load on demand Options Frame for Natur EnemyCastBar
## Version: 5.4.8
## Dependencies: CEnemyCastBar
## LoadOnDemand: 1
CECB_Options.xml