## Interface: 11200
## Title: |cff33ffccpf|cffffffffQuest
## Author: Shagu
## Notes: A lightweight Questhelper and Database
## Notes-ruRU: Облегченный помошник заданий и база данных
## Version: 6.3.4
## OptionalDeps: pfUI
## SavedVariables: pfQuest_questcache
## SavedVariablesPerCharacter: pfQuest_config, pfBrowser_fav, pfQuest_history, pfQuest_colors, pfQuest_server
init\data.xml
init\enUS.xml
init\enUS.xml
init\addon.xml
